\relax 
\providecommand\hyper@newdestlabel[2]{}
\providecommand\BKM@entry[2]{}
\providecommand\HyperFirstAtBeginDocument{\AtBeginDocument}
\HyperFirstAtBeginDocument{\ifx\hyper@anchor\@undefined
\global\let\oldcontentsline\contentsline
\gdef\contentsline#1#2#3#4{\oldcontentsline{#1}{#2}{#3}}
\global\let\oldnewlabel\newlabel
\gdef\newlabel#1#2{\newlabelxx{#1}#2}
\gdef\newlabelxx#1#2#3#4#5#6{\oldnewlabel{#1}{{#2}{#3}}}
\AtEndDocument{\ifx\hyper@anchor\@undefined
\let\contentsline\oldcontentsline
\let\newlabel\oldnewlabel
\fi}
\fi}
\global\let\hyper@last\relax 
\gdef\HyperFirstAtBeginDocument#1{#1}
\providecommand\HyField@AuxAddToFields[1]{}
\providecommand\HyField@AuxAddToCoFields[2]{}
\@input{sections/section1.aux}
\BKM@entry{id=1,dest={73656374696F6E2E31},srcline={2}}{496E74726F64756374696F6E}
\@input{sections/section2.aux}
\BKM@entry{id=2,dest={73656374696F6E2E32},srcline={1}}{4D616368696E65204C6561726E696E67}
\BKM@entry{id=3,dest={73756273656374696F6E2E322E31},srcline={21}}{426173696320436F6E6365707473}
\BKM@entry{id=4,dest={73756273756273656374696F6E2E322E312E31},srcline={24}}{57686174206172652046656174757265733F}
\BKM@entry{id=5,dest={73756273756273656374696F6E2E322E312E32},srcline={46}}{466561747572652053656C656374696F6E}
\BKM@entry{id=6,dest={73756273756273656374696F6E2E322E312E33},srcline={68}}{466561747572652045787472616374696F6E}
\BKM@entry{id=7,dest={73756273756273656374696F6E2E322E312E34},srcline={71}}{46696E64696E672061205061747465726E206F722052656C6174696F6E}
\BKM@entry{id=8,dest={73756273656374696F6E2E322E32},srcline={88}}{53757065727669736564204C6561726E696E67}
\BKM@entry{id=9,dest={73756273756273656374696F6E2E322E322E31},srcline={99}}{436C617373696669636174696F6E2050726F626C656D73}
\BKM@entry{id=10,dest={73756273756273656374696F6E2E322E322E32},srcline={119}}{52656772657373696F6E2050726F626C656D73}
\BKM@entry{id=11,dest={73756273656374696F6E2E322E33},srcline={145}}{556E73757065727669736564204C6561726E696E67}
\@input{sections/section3.aux}
\BKM@entry{id=12,dest={73656374696F6E2E33},srcline={2}}{4D616A6F72204D616368696E65204C6561726E696E6720416C676F726974686D73}
\BKM@entry{id=13,dest={73756273656374696F6E2E332E31},srcline={5}}{4C696E6561722052656772657373696F6E}
\BKM@entry{id=14,dest={73756273656374696F6E2E332E32},srcline={84}}{4C6F6769737469632052656772657373696F6E}
\BKM@entry{id=15,dest={73756273656374696F6E2E332E33},srcline={171}}{537570706F727420566563746F72204D616368696E65}
\BKM@entry{id=16,dest={73756273756273656374696F6E2E332E332E31},srcline={190}}{436F6D707574696E6720746865204F7074696D616C204879706572706C616E65}
\BKM@entry{id=17,dest={73756273756273656374696F6E2E332E332E32},srcline={260}}{4B65726E656C20547269636B205C284E6F6E2D4C696E65617220436C617373696669636174696F6E5C29}
\@input{sections/section4.aux}
\BKM@entry{id=18,dest={73656374696F6E2E34},srcline={2}}{4170706C69636174696F6E73206F662053564D20696E204E75636C65617220506F77657220506C616E7473}
\BKM@entry{id=19,dest={73756273656374696F6E2E342E31},srcline={6}}{457374696D6174696F6E206F6620506F776572205065616B696E6720466163746F72}
\BKM@entry{id=20,dest={73756273656374696F6E2E342E32},srcline={77}}{446574656374696F6E20616E6420446961676E6F7374696373206F66204C4F4341}
\BKM@entry{id=21,dest={73756273656374696F6E2E342E33},srcline={150}}{50726564696374697665206261736564204465677261646174696F6E204D6F6E69746F72696E67206F66204E505020636F6D706F6E656E7473}
\BKM@entry{id=22,dest={73656374696F6E2A2E3134},srcline={56}}{5265736F7572636573}
\BKM@entry{id=23,dest={73656374696F6E2A2E3135},srcline={70}}{5265666572656E636573}
\bibcite{ppf}{1}
\bibcite{colss}{2}
\bibcite{sc}{3}
\bibcite{loca1}{4}
\bibcite{maap4}{5}
\bibcite{relap5}{6}
\bibcite{monitor1}{7}
\bibcite{monitor2}{8}
\bibcite{monitor3}{9}
\bibcite{monitor4}{10}
\newlabel{sec:resources}{{4.3}{21}{Resources}{section*.14}{}}
\@writefile{toc}{\contentsline {section}{\nameref  {sec:resources}}{21}{section*.14}}
\newlabel{sec:references}{{4.3}{21}{\refname }{section*.15}{}}
\@writefile{toc}{\contentsline {section}{\nameref  {sec:references}}{21}{section*.15}}
\bibcite{gaussian}{11}
