\relax 
\providecommand\hyper@newdestlabel[2]{}
\@writefile{toc}{\contentsline {section}{\numberline {2}Machine Learning}{3}{section.2}}
\newlabel{machineLearning}{{2}{3}{Machine Learning}{section.2}{}}
\@writefile{toc}{\contentsline {subsection}{\numberline {2.1}Basic Concepts}{3}{subsection.2.1}}
\@writefile{toc}{\contentsline {subsubsection}{\numberline {2.1.1}What are Features?}{4}{subsubsection.2.1.1}}
\@writefile{lot}{\contentsline {table}{\numberline {1}{\ignorespaces Some possible features of cars}}{4}{table.1}}
\@writefile{toc}{\contentsline {subsubsection}{\numberline {2.1.2}Feature Selection}{4}{subsubsection.2.1.2}}
\@writefile{lot}{\contentsline {table}{\numberline {2}{\ignorespaces Useful features for a car's classification}}{4}{table.2}}
\@writefile{lof}{\contentsline {figure}{\numberline {2}{\ignorespaces `h' is called the hypothesis function, that has been trained according to the training data. This function is now ready to produce estimated outputs for unknown inputs}}{5}{figure.2}}
\newlabel{learn}{{2}{5}{`h' is called the hypothesis function, that has been trained according to the training data. This function is now ready to produce estimated outputs for unknown inputs}{figure.2}{}}
\@writefile{toc}{\contentsline {subsubsection}{\numberline {2.1.3}Feature Extraction}{5}{subsubsection.2.1.3}}
\@writefile{toc}{\contentsline {subsubsection}{\numberline {2.1.4}Finding a Pattern or Relation}{5}{subsubsection.2.1.4}}
\@writefile{toc}{\contentsline {subsection}{\numberline {2.2}Supervised Learning}{5}{subsection.2.2}}
\@writefile{toc}{\contentsline {subsubsection}{\numberline {2.2.1}Classification Problems}{6}{subsubsection.2.2.1}}
\@writefile{lot}{\contentsline {table}{\numberline {3}{\ignorespaces Possible outputs of some trivial classification problems}}{6}{table.3}}
\@writefile{toc}{\contentsline {subsubsection}{\numberline {2.2.2}Regression Problems}{6}{subsubsection.2.2.2}}
\@writefile{toc}{\contentsline {subsection}{\numberline {2.3}Unsupervised Learning}{6}{subsection.2.3}}
\@writefile{lof}{\contentsline {figure}{\numberline {3}{\ignorespaces The data available to the business shows the prices of sold houses against their area. This data will be the training set for the learning algorithm}}{7}{figure.3}}
\newlabel{house}{{3}{7}{The data available to the business shows the prices of sold houses against their area. This data will be the training set for the learning algorithm}{figure.3}{}}
\@writefile{lot}{\contentsline {table}{\numberline {4}{\ignorespaces Possible outputs of some trivial regression problems}}{7}{table.4}}
\@writefile{lof}{\contentsline {figure}{\numberline {4}{\ignorespaces Large numbers of irrelevant training data is provided to the learning algorithm. It divides the data into multiple clusters without the need of providing class labels}}{8}{figure.4}}
\newlabel{clustering}{{4}{8}{Large numbers of irrelevant training data is provided to the learning algorithm. It divides the data into multiple clusters without the need of providing class labels}{figure.4}{}}
\@setckpt{sections/section2}{
\setcounter{page}{9}
\setcounter{equation}{0}
\setcounter{enumi}{2}
\setcounter{enumii}{0}
\setcounter{enumiii}{0}
\setcounter{enumiv}{0}
\setcounter{footnote}{2}
\setcounter{mpfootnote}{0}
\setcounter{part}{0}
\setcounter{section}{2}
\setcounter{subsection}{3}
\setcounter{subsubsection}{0}
\setcounter{paragraph}{0}
\setcounter{subparagraph}{0}
\setcounter{figure}{4}
\setcounter{table}{4}
\setcounter{Maxaffil}{2}
\setcounter{authors}{1}
\setcounter{affil}{1}
\setcounter{AM@survey}{0}
\setcounter{float@type}{4}
\setcounter{parentequation}{0}
\setcounter{LT@tables}{0}
\setcounter{LT@chunks}{0}
\setcounter{Item}{2}
\setcounter{Hfootnote}{2}
\setcounter{bookmark@seq@number}{0}
\setcounter{section@level}{2}
}
