\relax 
\providecommand\hyper@newdestlabel[2]{}
\@writefile{toc}{\contentsline {section}{\numberline {3}Major Machine Learning Algorithms}{9}{section.3}}
\newlabel{majorAlgorithms}{{3}{9}{Major Machine Learning Algorithms}{section.3}{}}
\@writefile{toc}{\contentsline {subsection}{\numberline {3.1}Linear Regression}{9}{subsection.3.1}}
\newlabel{hypothesisEquation}{{3}{9}{Linear Regression}{equation.3.3}{}}
\@writefile{lof}{\contentsline {figure}{\numberline {5}{\ignorespaces The line represents the relation found between inputs and outputs for the given training samples using linear regression.}}{10}{figure.5}}
\newlabel{house2}{{5}{10}{The line represents the relation found between inputs and outputs for the given training samples using linear regression}{figure.5}{}}
\@writefile{toc}{\contentsline {subsection}{\numberline {3.2}Logistic Regression}{10}{subsection.3.2}}
\newlabel{logisticHypothesis}{{5}{10}{Logistic Regression}{equation.3.5}{}}
\@writefile{lof}{\contentsline {figure}{\numberline {6}{\ignorespaces The hypothesis function for logistic regression is a sigmoid function.}}{11}{figure.6}}
\newlabel{sigmoid}{{6}{11}{The hypothesis function for logistic regression is a sigmoid function}{figure.6}{}}
\@writefile{lof}{\contentsline {figure}{\numberline {7}{\ignorespaces Logistic regression is used to design a boundary between two classes.}}{11}{figure.7}}
\newlabel{logisticClassification}{{7}{11}{Logistic regression is used to design a boundary between two classes}{figure.7}{}}
\newlabel{logisticHypothesis2}{{6}{11}{Logistic Regression}{equation.3.6}{}}
\newlabel{logisticCost}{{7}{11}{Logistic Regression}{equation.3.7}{}}
\newlabel{logisticCost2}{{8}{12}{Logistic Regression}{equation.3.8}{}}
\@writefile{toc}{\contentsline {subsection}{\numberline {3.3}Support Vector Machine}{12}{subsection.3.3}}
\@writefile{lof}{\contentsline {figure}{\numberline {8}{\ignorespaces Various separating straight lines can be used as classifiers for 2D data}}{12}{figure.8}}
\newlabel{svm1}{{8}{12}{Various separating straight lines can be used as classifiers for 2D data}{figure.8}{}}
\@writefile{toc}{\contentsline {subsubsection}{\numberline {3.3.1}Computing the Optimal Hyperplane}{12}{subsubsection.3.3.1}}
\@writefile{lof}{\contentsline {figure}{\numberline {9}{\ignorespaces SMV finds the hyperplane (straight line in this case) that maximizes the margin}}{13}{figure.9}}
\newlabel{svm2}{{9}{13}{SMV finds the hyperplane (straight line in this case) that maximizes the margin}{figure.9}{}}
\newlabel{svmEq1}{{9}{13}{Computing the Optimal Hyperplane}{equation.3.9}{}}
\newlabel{optimalhyperplane}{{10}{13}{Computing the Optimal Hyperplane}{equation.3.10}{}}
\newlabel{distance}{{11}{13}{Computing the Optimal Hyperplane}{equation.3.11}{}}
\newlabel{svmCost}{{14}{14}{Computing the Optimal Hyperplane}{equation.3.14}{}}
\@writefile{toc}{\contentsline {subsubsection}{\numberline {3.3.2}Kernel Trick (Non-Linear Classification)}{14}{subsubsection.3.3.2}}
\@writefile{lof}{\contentsline {figure}{\numberline {10}{\ignorespaces A non-linearly separable dataset in $\mathbb  {R}^2$ (left) is transformed into a linearly separable vector space in $\mathbb  {R}^3$ (right) using a quadratic kernel function}}{15}{figure.10}}
\newlabel{kernel1}{{10}{15}{A non-linearly separable dataset in $\mathbb {R}^2$ (left) is transformed into a linearly separable vector space in $\mathbb {R}^3$ (right) using a quadratic kernel function}{figure.10}{}}
\@writefile{lof}{\contentsline {figure}{\numberline {11}{\ignorespaces The decision boundary appears linear to SVM in $\mathbb  {R}^3$ (left) because of the kernel function. The decision boundary is non-linear in $\mathbb  {R}^2$ (right)}}{15}{figure.11}}
\newlabel{kernel2}{{11}{15}{The decision boundary appears linear to SVM in $\mathbb {R}^3$ (left) because of the kernel function. The decision boundary is non-linear in $\mathbb {R}^2$ (right)}{figure.11}{}}
\@setckpt{sections/section3}{
\setcounter{page}{16}
\setcounter{equation}{14}
\setcounter{enumi}{2}
\setcounter{enumii}{0}
\setcounter{enumiii}{0}
\setcounter{enumiv}{0}
\setcounter{footnote}{5}
\setcounter{mpfootnote}{0}
\setcounter{part}{0}
\setcounter{section}{3}
\setcounter{subsection}{3}
\setcounter{subsubsection}{2}
\setcounter{paragraph}{0}
\setcounter{subparagraph}{0}
\setcounter{figure}{11}
\setcounter{table}{4}
\setcounter{Maxaffil}{2}
\setcounter{authors}{1}
\setcounter{affil}{1}
\setcounter{AM@survey}{0}
\setcounter{float@type}{4}
\setcounter{parentequation}{0}
\setcounter{LT@tables}{0}
\setcounter{LT@chunks}{0}
\setcounter{Item}{2}
\setcounter{Hfootnote}{5}
\setcounter{bookmark@seq@number}{0}
\setcounter{section@level}{3}
}
