\relax 
\providecommand\hyper@newdestlabel[2]{}
\citation{ppf}
\citation{colss}
\citation{ppf}
\citation{sc}
\@writefile{toc}{\contentsline {section}{\numberline {4}Applications of SVM in Nuclear Power Plants}{16}{section.4}}
\@writefile{toc}{\contentsline {subsection}{\numberline {4.1}Estimation of Power Peaking Factor}{16}{subsection.4.1}}
\@writefile{lot}{\contentsline {table}{\numberline {5}{\ignorespaces Input and output signals}}{16}{table.5}}
\newlabel{ppftable1}{{5}{16}{Input and output signals}{table.5}{}}
\citation{loca1}
\citation{loca1}
\citation{maap4}
\citation{relap5}
\@writefile{lot}{\contentsline {table}{\numberline {6}{\ignorespaces Comparison of Calculated PPF Values}}{17}{table.6}}
\newlabel{ppftable2}{{6}{17}{Comparison of Calculated PPF Values}{table.6}{}}
\@writefile{toc}{\contentsline {subsection}{\numberline {4.2}Detection and Diagnostics of LOCA}{17}{subsection.4.2}}
\citation{monitor4}
\@writefile{lot}{\contentsline {table}{\numberline {7}{\ignorespaces Selected Inputs for SVR}}{18}{table.7}}
\newlabel{locatable1}{{7}{18}{Selected Inputs for SVR}{table.7}{}}
\@writefile{lot}{\contentsline {table}{\numberline {8}{\ignorespaces RMS prediction error of SVR model}}{18}{table.8}}
\newlabel{locatable2}{{8}{18}{RMS prediction error of SVR model}{table.8}{}}
\citation{monitor1}
\citation{monitor2}
\citation{monitor3}
\citation{monitor4}
\citation{gaussian}
\@writefile{lof}{\contentsline {figure}{\numberline {12}{\ignorespaces Predicted break size using SVC}}{19}{figure.12}}
\newlabel{locasvc}{{12}{19}{Predicted break size using SVC}{figure.12}{}}
\@writefile{toc}{\contentsline {subsection}{\numberline {4.3}Predictive based Degradation Monitoring of NPP components}{19}{subsection.4.3}}
\@writefile{lof}{\contentsline {figure}{\numberline {13}{\ignorespaces The proposed system for predicting the degradation of NPP components using SVR with Gaussian Kernel}}{20}{figure.13}}
\newlabel{monitor}{{13}{20}{The proposed system for predicting the degradation of NPP components using SVR with Gaussian Kernel}{figure.13}{}}
\@writefile{lof}{\contentsline {figure}{\numberline {14}{\ignorespaces Turbine blade will degrade beyond acceptable limit within $5\times 10^5$ operation cycles.}}{20}{figure.14}}
\newlabel{monitor2}{{14}{20}{Turbine blade will degrade beyond acceptable limit within $5\times 10^5$ operation cycles}{figure.14}{}}
\@setckpt{sections/section4}{
\setcounter{page}{21}
\setcounter{equation}{14}
\setcounter{enumi}{2}
\setcounter{enumii}{0}
\setcounter{enumiii}{0}
\setcounter{enumiv}{0}
\setcounter{footnote}{6}
\setcounter{mpfootnote}{0}
\setcounter{part}{0}
\setcounter{section}{4}
\setcounter{subsection}{3}
\setcounter{subsubsection}{0}
\setcounter{paragraph}{0}
\setcounter{subparagraph}{0}
\setcounter{figure}{14}
\setcounter{table}{8}
\setcounter{Maxaffil}{2}
\setcounter{authors}{1}
\setcounter{affil}{1}
\setcounter{AM@survey}{0}
\setcounter{float@type}{4}
\setcounter{parentequation}{0}
\setcounter{LT@tables}{0}
\setcounter{LT@chunks}{0}
\setcounter{Item}{2}
\setcounter{Hfootnote}{6}
\setcounter{bookmark@seq@number}{0}
\setcounter{section@level}{2}
}
